tests/claa_4bit.vcd
$date
  Thu Jan 10 21:34:04 2019
$end
$version
  GHDL v0
$end
$timescale
  1 fs
$end
$var reg 4 ! opa_tb[3:0] $end
$var reg 4 " opb_tb[3:0] $end
$var reg 4 # eo_tb[3:0] $end
$var reg 1 $ ci_tb $end
$var reg 1 % po_tb $end
$var reg 1 & go_tb $end
$var reg 1 ' co_tb $end
$scope module dut $end
$var reg 4 ( opai[3:0] $end
$var reg 4 ) opbi[3:0] $end
$var reg 1 * ci $end
$var reg 4 + eo[3:0] $end
$var reg 1 , po $end
$var reg 1 - go $end
$var reg 1 . co $end
$var reg 4 / e_vec[3:0] $end
$var reg 4 0 p_vec[3:0] $end
$var reg 4 1 g_vec[3:0] $end
$var reg 4 2 c_vec[3:0] $end
$scope module gen_adder(0) $end
$scope module lsb_adder $end
$scope module a0 $end
$var reg 1 3 opai $end
$var reg 1 4 opbi $end
$var reg 1 5 ci $end
$var reg 1 6 eo $end
$var reg 1 7 go $end
$var reg 1 8 po $end
$upscope $end
$upscope $end
$upscope $end
$scope module gen_adder(1) $end
$scope module adder $end
$scope module ax $end
$var reg 1 9 opai $end
$var reg 1 : opbi $end
$var reg 1 ; ci $end
$var reg 1 < eo $end
$var reg 1 = go $end
$var reg 1 > po $end
$upscope $end
$upscope $end
$upscope $end
$scope module gen_adder(2) $end
$scope module adder $end
$scope module ax $end
$var reg 1 ? opai $end
$var reg 1 @ opbi $end
$var reg 1 A ci $end
$var reg 1 B eo $end
$var reg 1 C go $end
$var reg 1 D po $end
$upscope $end
$upscope $end
$upscope $end
$scope module gen_adder(3) $end
$scope module adder $end
$scope module ax $end
$var reg 1 E opai $end
$var reg 1 F opbi $end
$var reg 1 G ci $end
$var reg 1 H eo $end
$var reg 1 I go $end
$var reg 1 J po $end
$upscope $end
$upscope $end
$upscope $end
$scope module lcu_inst $end
$var reg 1 K ci $end
$var reg 4 L pi[3:0] $end
$var reg 4 M gi[3:0] $end
$var reg 4 N co[3:0] $end
$var reg 1 O pgo $end
$var reg 1 P ggo $end
$var reg 1 Q pg $end
$var reg 1 R gg $end
$var reg 4 S c_vec[3:0] $end
$upscope $end
$upscope $end
$enddefinitions $end
#0
b0000 !
b0000 "
b0000 #
0$
0%
0&
0'
b0000 (
b0000 )
0*
b0000 +
0,
0-
0.
b0000 /
b0000 0
b0000 1
b0000 2
03
04
05
06
07
08
09
0:
0;
0<
0=
0>
0?
0@
0A
0B
0C
0D
0E
0F
0G
0H
0I
0J
0K
b0000 L
b0000 M
b0000 N
0O
0P
0Q
0R
b0000 S
#5000000
b0001 !
b0001 "
b0011 #
1$
b0001 (
b0001 )
1*
b0011 +
b0011 /
b0001 0
b0001 1
b0001 2
13
14
15
16
17
18
1;
1<
1K
b0001 L
b0001 M
b0001 N
b0001 S
#10000000
b0010 !
b0100 "
b0110 #
0$
b0010 (
b0100 )
0*
b0110 +
b0110 /
b0110 0
b0000 1
b0000 2
03
04
05
06
07
08
19
0;
1<
1>
1@
0A
1B
1D
0G
0H
0K
b0110 L
b0000 M
b0000 N
b0000 S
#15000000
b0100 !
b1100 "
b0000 #
1&
1'
b0100 (
b1100 )
b0000 +
1-
1.
b0000 /
b1100 0
b0100 1
b1100 2
09
0<
0>
1?
0B
1C
1F
1G
0H
1J
b1100 L
b0100 M
b1100 N
1P
1R
b1100 S
#20000000
b1000 !
b0111 "
b1111 #
1%
0&
0'
b1000 (
b0111 )
b1111 +
1,
0-
0.
b1111 /
b1111 0
b0000 1
b0000 2
14
16
18
1:
1<
1>
0?
1B
0C
1E
0F
0G
1H
b1111 L
b0000 M
b0000 N
1O
0P
1Q
0R
b0000 S
#25000000
b1010 !
b0101 "
b0000 #
1$
1'
b1010 (
b0101 )
1*
b0000 +
1.
b0000 /
b1111 2
15
06
19
0:
1;
0<
1A
0B
1G
0H
1K
b1111 N
b1111 S
#30000000
b1111 !
b1111 "
b1110 #
0$
1&
b1111 (
b1111 )
0*
b1110 +
1-
b1110 /
b1111 1
b1111 2
13
05
17
1:
1;
1<
1=
1?
1B
1C
1F
1H
1I
0K
b1111 M
b1111 N
1P
1R
b1111 S
#35000000
b1000 !
b1000 "
b0000 #
0%
b1000 (
b1000 )
b0000 +
0,
b0000 /
b1000 0
b1000 1
b1000 2
03
04
07
08
09
0:
0;
0<
0=
0>
0?
0@
0A
0B
0C
0D
0G
0H
b1000 L
b1000 M
b1000 N
0O
0Q
b1000 S
