tests/claa_16bit_tb.vcd
$date
  Fri Jan 11 22:36:29 2019
$end
$version
  GHDL v0
$end
$timescale
  1 fs
$end
$var reg 16 ! opa_tb[15:0] $end
$var reg 16 " opb_tb[15:0] $end
$var reg 16 # eo_tb[15:0] $end
$var reg 1 $ ci_tb $end
$var reg 1 % po_tb $end
$var reg 1 & go_tb $end
$var reg 1 ' co_tb $end
$scope module dut $end
$upscope $end
$enddefinitions $end
#0
b0000000000000000 !
b0000000000000000 "
bUUUUUUUUUUUUUUUU #
0$
U%
U&
U'
#5000000
b0000000000000001 !
b0000000000000001 "
#10000000
1$
#15000000
b1111111111111100 !
b0000000000000011 "
0$
#20000000
b1010101010101010 !
b0101010101010101 "
1$
#25000000
b0001000010001011 !
b0100001000000100 "
#30000000
0$
#35000000
b0000100110010000 !
b1100000000000011 "
#40000000
b0000000000001111 !
b0000000000001111 "
#45000000
b0000000011111111 !
b0000000011111111 "
1$
