sim/alu_tb.vcd
$date
  Sun May 26 21:54:08 2019
$end
$version
  GHDL v0
$end
$timescale
  1 fs
$end
$scope module standard $end
$upscope $end
$scope module textio $end
$upscope $end
$scope module std_logic_1164 $end
$upscope $end
$scope module numeric_std $end
$upscope $end
$scope module alu_tb $end
$var reg 16 ! op1_tb[15:0] $end
$var reg 16 " op2_tb[15:0] $end
$var reg 16 # res_tb[15:0] $end
$var reg 5 $ opc_tb[4:0] $end
$var reg 4 % flags_tb[3:0] $end
$var reg 1 & clk_tb $end
$scope module dut $end
$var reg 16 ' i_op1[15:0] $end
$var reg 16 ( i_op2[15:0] $end
$var reg 5 ) i_opc[4:0] $end
$var reg 1 * i_clk $end
$var reg 16 + o_res[15:0] $end
$var reg 4 , o_flags[3:0] $end
$var reg 16 - add_vec[15:0] $end
$var reg 16 . inv_vec[15:0] $end
$var reg 1 / sub_flag $end
$var reg 16 0 add_res[15:0] $end
$var reg 1 1 add_flag $end
$var reg 16 2 lu_res[15:0] $end
$var reg 1 3 lu_and $end
$var reg 1 4 lu_or $end
$var reg 1 5 lu_xor $end
$var reg 1 6 lu_not $end
$var reg 1 7 lu_flag $end
$var reg 4 8 shift[3:0] $end
$var reg 16 9 sh_res[15:0] $end
$var reg 1 : sh_dir $end
$var reg 1 ; sh_rot $end
$var reg 1 < sh_ar $end
$var reg 1 = sh_flag $end
$var reg 32 > mul_op1[31:0] $end
$var reg 32 ? mul_op2[31:0] $end
$var reg 1 @ mul_flag $end
$var reg 4 A lu_flags[3:0] $end
$var reg 4 B sh_flags[3:0] $end
$var reg 4 C add_flags[3:0] $end
$var reg 16 D res[15:0] $end
$scope module bk_inst $end
$var reg 16 E i_op1[15:0] $end
$var reg 16 F i_op2[15:0] $end
$var reg 1 G i_c $end
$var reg 16 H o_res[15:0] $end
$var reg 4 I o_flags[3:0] $end
$comment carry_tree is not handled $end
$var reg 16 J g_vec[15:0] $end
$var reg 16 K p_vec[15:0] $end
$var reg 16 L sum[15:0] $end
$var reg 1 M add_z $end
$var reg 1 N add_f $end
$var reg 1 O add_c $end
$var reg 1 P add_n $end
$upscope $end
$scope module lu_int $end
$var reg 16 Q i_op1[15:0] $end
$var reg 16 R i_op2[15:0] $end
$var reg 1 S i_and $end
$var reg 1 T i_or $end
$var reg 1 U i_xor $end
$var reg 1 V i_not $end
$var reg 16 W o_res[15:0] $end
$var reg 4 X o_flags[3:0] $end
$var reg 16 Y res[15:0] $end
$var reg 1 Z lu_z $end
$var reg 1 [ lu_f $end
$var reg 1 \ lu_c $end
$var reg 1 ] lu_n $end
$upscope $end
$scope module shifter_inst $end
$var reg 16 ^ i_op[15:0] $end
$var reg 4 _ i_s[3:0] $end
$var reg 1 ` i_dir $end
$var reg 1 a i_rot $end
$var reg 1 b i_ar $end
$var reg 16 c o_res[15:0] $end
$var reg 4 d o_flags[3:0] $end
$var reg 16 e rev_0[15:0] $end
$var reg 8 f rev_0_8[7:0] $end
$var reg 4 g rev_0_4[3:0] $end
$var reg 2 h rev_0_2[1:0] $end
$var reg 16 i rev_1[15:0] $end
$var reg 16 j rot_0[15:0] $end
$var reg 16 k rot_1[15:0] $end
$var reg 16 l rot_2[15:0] $end
$var reg 16 m rot_3[15:0] $end
$var reg 16 n s_l0[15:0] $end
$var reg 16 o s_l1[15:0] $end
$var reg 16 p s_l2[15:0] $end
$var reg 16 q s_l3[15:0] $end
$var reg 1 r s $end
$var reg 2 s s_2[1:0] $end
$var reg 4 t s_4[3:0] $end
$var reg 8 u s_8[7:0] $end
$var reg 1 v sl $end
$var reg 1 w sr $end
$var reg 1 x sign_sig $end
$var reg 16 y adj_s_l3[15:0] $end
$var reg 8 z of_mux_out0[7:0] $end
$var reg 4 { of_mux_out1[3:0] $end
$var reg 2 | of_mux_out2[1:0] $end
$var reg 1 } of_mux_out3 $end
$var reg 8 !" xor_out0[7:0] $end
$var reg 4 "" xor_out1[3:0] $end
$var reg 2 #" xor_out2[1:0] $end
$var reg 1 $" xor_out3 $end
$var reg 1 %" of_tmp0 $end
$var reg 1 &" of_tmp1 $end
$var reg 1 '" of_tmp2 $end
$var reg 1 (" of_tmp3 $end
$var reg 1 )" sh_z $end
$var reg 1 *" sh_f $end
$var reg 1 +" sh_c $end
$var reg 1 ," sh_n $end
$scope module rev0_mux $end
$var reg 16 -" i_sig0[15:0] $end
$var reg 16 ." i_sig1[15:0] $end
$var reg 1 /" i_sel $end
$var reg 16 0" o_sig[15:0] $end
$upscope $end
$scope module arith_mux $end
$var reg 1 1" i_sig0[0:0] $end
$var reg 1 2" i_sig1[0:0] $end
$var reg 1 3" i_sel $end
$var reg 1 4" o_sig[0:0] $end
$upscope $end
$scope module rot_l0_mux $end
$var reg 8 5" i_sig0[7:0] $end
$var reg 8 6" i_sig1[7:0] $end
$var reg 1 7" i_sel $end
$var reg 8 8" o_sig[7:0] $end
$upscope $end
$scope module mux_8shift $end
$var reg 16 9" i_sig0[15:0] $end
$var reg 16 :" i_sig1[15:0] $end
$var reg 1 ;" i_sel $end
$var reg 16 <" o_sig[15:0] $end
$upscope $end
$scope module rot_l1_mux $end
$var reg 4 =" i_sig0[3:0] $end
$var reg 4 >" i_sig1[3:0] $end
$var reg 1 ?" i_sel $end
$var reg 4 @" o_sig[3:0] $end
$upscope $end
$scope module mux_4shift $end
$var reg 16 A" i_sig0[15:0] $end
$var reg 16 B" i_sig1[15:0] $end
$var reg 1 C" i_sel $end
$var reg 16 D" o_sig[15:0] $end
$upscope $end
$scope module rot_l2_mux $end
$var reg 2 E" i_sig0[1:0] $end
$var reg 2 F" i_sig1[1:0] $end
$var reg 1 G" i_sel $end
$var reg 2 H" o_sig[1:0] $end
$upscope $end
$scope module mux_2shift $end
$var reg 16 I" i_sig0[15:0] $end
$var reg 16 J" i_sig1[15:0] $end
$var reg 1 K" i_sel $end
$var reg 16 L" o_sig[15:0] $end
$upscope $end
$scope module rot_l3_mux $end
$var reg 1 M" i_sig0[0:0] $end
$var reg 1 N" i_sig1[0:0] $end
$var reg 1 O" i_sel $end
$var reg 1 P" o_sig[0:0] $end
$upscope $end
$scope module mux_1shift $end
$var reg 16 Q" i_sig0[15:0] $end
$var reg 16 R" i_sig1[15:0] $end
$var reg 1 S" i_sel $end
$var reg 16 T" o_sig[15:0] $end
$upscope $end
$scope module sign_sl $end
$var reg 1 U" i_sig0[0:0] $end
$var reg 1 V" i_sig1[0:0] $end
$var reg 1 W" i_sel $end
$var reg 1 X" o_sig[0:0] $end
$upscope $end
$scope module rev1_mux $end
$var reg 16 Y" i_sig0[15:0] $end
$var reg 16 Z" i_sig1[15:0] $end
$var reg 1 [" i_sel $end
$var reg 16 \" o_sig[15:0] $end
$upscope $end
$scope module of0_mux $end
$var reg 8 ]" i_sig0[7:0] $end
$var reg 8 ^" i_sig1[7:0] $end
$var reg 1 _" i_sel $end
$var reg 8 `" o_sig[7:0] $end
$upscope $end
$scope module of1_mux $end
$var reg 4 a" i_sig0[3:0] $end
$var reg 4 b" i_sig1[3:0] $end
$var reg 1 c" i_sel $end
$var reg 4 d" o_sig[3:0] $end
$upscope $end
$scope module of2_mux $end
$var reg 2 e" i_sig0[1:0] $end
$var reg 2 f" i_sig1[1:0] $end
$var reg 1 g" i_sel $end
$var reg 2 h" o_sig[1:0] $end
$upscope $end
$scope module of3_mux $end
$var reg 1 i" i_sig0[0:0] $end
$var reg 1 j" i_sig1[0:0] $end
$var reg 1 k" i_sel $end
$var reg 1 l" o_sig[0:0] $end
$upscope $end
$scope module xor_0(0) $end
$upscope $end
$scope module xor_0(1) $end
$upscope $end
$scope module xor_0(2) $end
$upscope $end
$scope module xor_0(3) $end
$upscope $end
$scope module xor_0(4) $end
$upscope $end
$scope module xor_0(5) $end
$upscope $end
$scope module xor_0(6) $end
$upscope $end
$scope module xor_0(7) $end
$upscope $end
$scope module xor_1(0) $end
$upscope $end
$scope module xor_1(1) $end
$upscope $end
$scope module xor_1(2) $end
$upscope $end
$scope module xor_1(3) $end
$upscope $end
$scope module xor_2(0) $end
$upscope $end
$scope module xor_2(1) $end
$upscope $end
$upscope $end
$scope module mult_inst $end
$var reg 16 m" i_op1[15:0] $end
$var reg 16 n" i_op2[15:0] $end
$var reg 32 o" o_op1[31:0] $end
$var reg 32 p" o_op2[31:0] $end
$comment tree is not handled $end
$var reg 16 q" op1[15:0] $end
$var reg 16 r" op2[15:0] $end
$upscope $end
$scope module decoder_inst $end
$var reg 5 s" i_opc[4:0] $end
$var reg 1 t" o_add $end
$var reg 1 u" o_sub $end
$var reg 1 v" o_and $end
$var reg 1 w" o_or $end
$var reg 1 x" o_xor $end
$var reg 1 y" o_not $end
$var reg 1 z" o_dir $end
$var reg 1 {" o_rot $end
$var reg 1 |" o_ar $end
$var reg 1 }" o_mult $end
$upscope $end
$upscope $end
$upscope $end
$enddefinitions $end
#0
b0000000000000000 !
b0000000000000000 "
bUUUUUUUUUUUUUUUU #
b10000 $
b1010 %
0&
b0000000000000000 '
b0000000000000000 (
b10000 )
0*
bUUUUUUUUUUUUUUUU +
b1010 ,
b0000000000000000 -
b1111111111111111 .
1/
b0000000000000000 0
01
b1111111111111111 2
03
04
05
06
07
b0000 8
b0000000000000000 9
0:
0;
0<
0=
b00000000000000000000000000000000 >
b00000000000000000000000000000000 ?
0@
b0001 A
b1010 B
b1010 C
bUUUUUUUUUUUUUUUU D
b0000000000000000 E
b1111111111111111 F
1G
b0000000000000000 H
b1010 I
b0000000000000001 J
b1111111111111110 K
b0000000000000000 L
1M
0N
1O
0P
b0000000000000000 Q
b0000000000000000 R
0S
0T
0U
0V
b1111111111111111 W
b0001 X
b1111111111111111 Y
0Z
0[
0\
1]
b0000000000000000 ^
b0000 _
0`
0a
0b
b0000000000000000 c
b1010 d
b0000000000000000 e
b00000000 f
b0000 g
b00 h
b0000000000000000 i
b0000000000000000 j
b0000000000000000 k
b0000000000000000 l
b0000000000000000 m
b0000000000000000 n
b0000000000000000 o
b0000000000000000 p
b0000000000000000 q
0r
b00 s
b0000 t
b00000000 u
0v
0w
0x
b0000000000000000 y
b00000000 z
b0000 {
b00 |
0}
b00000000 !"
b0000 ""
b00 #"
0$"
0%"
0&"
0'"
0("
1)"
0*"
0+"
0,"
b0000000000000000 -"
b0000000000000000 ."
0/"
b0000000000000000 0"
b0 1"
b0 2"
03"
b0 4"
b00000000 5"
b00000000 6"
07"
b00000000 8"
b0000000000000000 9"
b0000000000000000 :"
0;"
b0000000000000000 <"
b0000 ="
b0000 >"
0?"
b0000 @"
b0000000000000000 A"
b0000000000000000 B"
0C"
b0000000000000000 D"
b00 E"
b00 F"
0G"
b00 H"
b0000000000000000 I"
b0000000000000000 J"
0K"
b0000000000000000 L"
b0 M"
b0 N"
0O"
b0 P"
b0000000000000000 Q"
b0000000000000000 R"
0S"
b0000000000000000 T"
b0 U"
b0 V"
0W"
b0 X"
b0000000000000000 Y"
b0000000000000000 Z"
0["
b0000000000000000 \"
b00000000 ]"
b00000000 ^"
0_"
b00000000 `"
b0000 a"
b0000 b"
0c"
b0000 d"
b00 e"
b00 f"
0g"
b00 h"
b0 i"
b0 j"
0k"
b0 l"
b0000000000000000 m"
b0000000000000000 n"
b00000000000000000000000000000000 o"
b00000000000000000000000000000000 p"
b0000000000000000 q"
b0000000000000000 r"
b10000 s"
0t"
1u"
0v"
0w"
0x"
0y"
0z"
0{"
0|"
0}"
#500000
b0000000000000000 #
1&
1*
b0000000000000000 +
#1000000
b0000100110010000 !
b1100000000000011 "
b10001 $
b0000 %
0&
b0000100110010000 '
b1100000000000011 (
b10001 )
0*
b0000 ,
b0000100110010000 -
b0011111111111100 .
0/
b0100100110001100 0
11
b1111011001101111 2
b0011 8
b0000000100110010 9
b00000111001011000001100010110000 >
b00000000000000000000010000000000 ?
b0000 B
b0000 C
b0000100110010000 E
b0011111111111100 F
0G
b0100100110001100 H
b0000 I
b0000100110010000 J
b0011011001101100 K
b0100100110001100 L
0M
0N
0O
0P
b0000100110010000 Q
b1100000000000011 R
b1111011001101111 W
b1111011001101111 Y
b0000100110010000 ^
b0011 _
b0000000100110010 c
b0000 d
b0000100110010000 e
b0000000100110010 i
b0000000000001001 j
b0000000010011001 k
b0000001001100100 l
b0000000100110010 m
b0000100110010000 n
b0000100110010000 o
b0000001001100100 p
b0000000100110010 q
b0000000100110010 y
0)"
b0000100110010000 -"
b0000100110010000 ."
b0000100110010000 0"
b10010000 6"
b0000100110010000 9"
b0000000000001001 :"
b0000100110010000 <"
b0000100110010000 A"
b0000000010011001 B"
b0000100110010000 D"
b0000100110010000 I"
b0000001001100100 J"
1K"
b0000001001100100 L"
b0000001001100100 Q"
b0000000100110010 R"
1S"
b0000000100110010 T"
b0000000100110010 Y"
b0100110010000000 Z"
b0000000100110010 \"
b11001000 ^"
b1000 b"
1g"
1k"
b0000100110010000 m"
b1100000000000011 n"
b00000111001011000001100010110000 o"
b00000000000000000000010000000000 p"
b0000100110010000 q"
b1100000000000011 r"
b10001 s"
1t"
0u"
#1500000
b0100100110001100 #
1&
1*
b0100100110001100 +
#2000000
b0111001010010001 !
b0111100111100101 "
b10010 $
b0000 %
0&
b0111001010010001 '
b0111100111100101 (
b10010 )
0*
b0000 ,
b0111001010010001 -
b1011001010001101 0
01
b0111000010000001 2
13
17
b0101 8
b0000001110010100 9
b00000101011010101111001010110101 >
b00110001001000100001001000000000 ?
b0000 A
b0101 C
b0111001010010001 E
b1011001010001101 H
b0101 I
b0011001010010000 J
b0100110101101101 K
b1011001010001101 L
1N
1P
b0111001010010001 Q
b0111100111100101 R
1S
b0111000010000001 W
b0000 X
b0111000010000001 Y
0]
b0111001010010001 ^
b0101 _
b0000001110010100 c
b0111001010010001 e
b11111111 f
b1111 g
b11 h
b0000001110010100 i
b0000000001110010 j
b0000011100101001 k
b0000000111001010 l
b0000001110010100 m
b0111001010010001 n
b0000011100101001 o
b0000011100101001 p
b0000001110010100 q
b0000001110010100 y
b11111111 z
b1000 {
b11 |
b00000000 !"
b0111 ""
b00 #"
1$"
0%"
1&"
0'"
1("
b0111001010010001 -"
b1000100101001110 ."
b0111001010010001 0"
b10010001 6"
b0111001010010001 9"
b0000000001110010 :"
b0111001010010001 <"
b0001 >"
b0111001010010001 A"
b0000011100101001 B"
1C"
b0000011100101001 D"
b01 F"
b0000011100101001 I"
b0000000111001010 J"
0K"
b0000011100101001 L"
b1 N"
b0000011100101001 Q"
b0000001110010100 R"
b0000001110010100 T"
b1 V"
b0000001110010100 Y"
b0010100111000000 Z"
b0000001110010100 \"
b11111111 ]"
b01001000 ^"
b11111111 `"
b1111 a"
1c"
b1000 d"
b11 e"
0g"
b11 h"
b1 i"
b0111001010010001 m"
b0111100111100101 n"
b00000101011010101111001010110101 o"
b00110001001000100001001000000000 p"
b0111001010010001 q"
b0111100111100101 r"
b10010 s"
0t"
1v"
#2500000
b0111000010000001 #
1&
1*
b0111000010000001 +
#3000000
b1001001010100001 !
b1000010001010101 "
b0001 %
0&
b1001001010100001 '
b1000010001010101 (
0*
b0001 ,
b1001001010100001 -
b1101001010011101 0
b1000000000000001 2
b0000010010010101 9
b01001011100010111010001101110101 >
b00000000010000000001000000000000 ?
b0001 A
b0001 C
b1001001010100001 E
b1101001010011101 H
b0001 I
b0001001010100000 J
b1010110101011101 K
b1101001010011101 L
0N
1P
b1001001010100001 Q
b1000010001010101 R
b1000000000000001 W
b0001 X
b1000000000000001 Y
1]
b1001001010100001 ^
b0000010010010101 c
b1001001010100001 e
b0000010010010101 i
b0000000010010010 j
b0000100100101010 k
b0000001001001010 l
b0000010010010101 m
b1001001010100001 n
b0000100100101010 o
b0000100100101010 p
b0000010010010101 q
1x
b0000010010010101 y
b0000 {
1}
b1111 ""
0$"
0("
b1001001010100001 -"
b1000010101001001 ."
b1001001010100001 0"
b1 2"
b10100001 6"
b1001001010100001 9"
b0000000010010010 :"
b1001001010100001 <"
b1001001010100001 A"
b0000100100101010 B"
b0000100100101010 D"
b10 F"
b0000100100101010 I"
b0000001001001010 J"
b0000100100101010 L"
b0 N"
b0000100100101010 Q"
b0000010010010101 R"
b0000010010010101 T"
b1 U"
b1 X"
b0000010010010101 Y"
b1010100100100000 Z"
b0000010010010101 \"
b01010000 ^"
b0000 b"
b0000 d"
b01 f"
b1 j"
b1 l"
b1001001010100001 m"
b1000010001010101 n"
b01001011100010111010001101110101 o"
b00000000010000000001000000000000 p"
b1001001010100001 q"
b1000010001010101 r"
#3500000
b1000000000000001 #
1&
1*
b1000000000000001 +
#4000000
b10011 $
0&
b10011 )
0*
b1001011011110101 2
03
14
0S
1T
b1001011011110101 W
b1001011011110101 Y
b10011 s"
0v"
1w"
#4500000
b1001011011110101 #
1&
1*
b1001011011110101 +
#5000000
b1111111111111111 !
b0000000000000000 "
0&
b1111111111111111 '
b0000000000000000 (
0*
b1111111111111111 -
b0011111111111011 0
b1111111111111111 2
b0000 8
b1111111111111111 9
b00000000000000000000000000000000 >
b00000000000000000000000000000000 ?
b0001 B
b0010 C
b1111111111111111 E
b0011111111111011 H
b0010 I
b0011111111111100 J
b1100000000000011 K
b0011111111111011 L
1O
0P
b1111111111111111 Q
b0000000000000000 R
b1111111111111111 W
b1111111111111111 Y
b1111111111111111 ^
b0000 _
b1111111111111111 c
b0001 d
b1111111111111111 e
b1111111111111111 i
b0000000011111111 j
b0000111111111111 k
b0011111111111111 l
b0111111111111111 m
b1111111111111111 n
b1111111111111111 o
b1111111111111111 p
b1111111111111111 q
1x
b1111111111111111 y
b1111 {
b0000 ""
0&"
1,"
b1111111111111111 -"
b1111111111111111 ."
b1111111111111111 0"
b11111111 6"
b1111111111111111 9"
b0000000011111111 :"
b1111111111111111 <"
b1111 >"
b1111111111111111 A"
b0000111111111111 B"
0C"
b1111111111111111 D"
b11 F"
b1111111111111111 I"
b0011111111111111 J"
b1111111111111111 L"
b1 N"
b1111111111111111 Q"
b0111111111111111 R"
0S"
b1111111111111111 T"
b1 U"
b1 X"
b1111111111111111 Y"
b1111111111111111 Z"
b1111111111111111 \"
b11111111 ^"
b1111 b"
0c"
b1111 d"
b11 f"
b1 j"
0k"
b1111111111111111 m"
b0000000000000000 n"
b00000000000000000000000000000000 o"
b00000000000000000000000000000000 p"
b1111111111111111 q"
b0000000000000000 r"
#5500000
b1111111111111111 #
1&
1*
b1111111111111111 +
#6000000
b0100100110011101 !
b0111001010110101 "
b10100 $
b0000 %
0&
b0100100110011101 '
b0111001010110101 (
b10100 )
0*
b0000 ,
b0100100110011101 -
b1000100110011001 0
b0011101100101000 2
04
15
b0101 8
b0000001001001100 9
b00011100111100111110000111111101 >
b00000100000010000001010000000100 ?
b0000 A
b0000 B
b0101 C
b0100100110011101 E
b1000100110011001 H
b0101 I
b0000100110011100 J
b0111011001100001 K
b1000100110011001 L
1N
0O
1P
b0100100110011101 Q
b0111001010110101 R
0T
1U
b0011101100101000 W
b0000 X
b0011101100101000 Y
0]
b0100100110011101 ^
b0101 _
b0000001001001100 c
b0000 d
b0100100110011101 e
b0000001001001100 i
b0000000001001001 j
b0000010010011001 k
b0000000100100110 l
b0000001001001100 m
b0100100110011101 n
b0000010010011001 o
b0000010010011001 p
b0000001001001100 q
0x
b0000001001001100 y
b1110 {
0}
b0001 ""
1$"
1&"
1("
0,"
b0100100110011101 -"
b1011100110010010 ."
b0100100110011101 0"
b0 2"
b10011101 6"
b0100100110011101 9"
b0000000001001001 :"
b0100100110011101 <"
b1101 >"
b0100100110011101 A"
b0000010010011001 B"
1C"
b0000010010011001 D"
b01 F"
b0000010010011001 I"
b0000000100100110 J"
b0000010010011001 L"
b0000010010011001 Q"
b0000001001001100 R"
1S"
b0000001001001100 T"
b0 U"
b0 X"
b0000001001001100 Y"
b0011001001000000 Z"
b0000001001001100 \"
b11001110 ^"
b1110 b"
1c"
b1110 d"
b00 f"
b0 j"
1k"
b0 l"
b0100100110011101 m"
b0111001010110101 n"
b00011100111100111110000111111101 o"
b00000100000010000001010000000100 p"
b0100100110011101 q"
b0111001010110101 r"
b10100 s"
0w"
1x"
#6500000
b0011101100101000 #
1&
1*
b0011101100101000 +
#7000000
b0100100101000101 !
b0100110110000001 "
b10101 $
b0001 %
0&
b0100100101000101 '
b0100110110000001 (
b10101 )
0*
b0001 ,
b0100100101000101 -
b1000100101000001 0
b1011011010111010 2
05
16
b0001 8
b0010010010100010 9
b00010101001011001010100011000001 >
b00000001000000100000010000000100 ?
b0001 A
b0100100101000101 E
b1000100101000001 H
b0000100101000100 J
b0111011010111001 K
b1000100101000001 L
b0100100101000101 Q
b0100110110000001 R
0U
1V
b1011011010111010 W
b0001 X
b1011011010111010 Y
1]
b0100100101000101 ^
b0001 _
b0010010010100010 c
b0100100101000101 e
b0010010010100010 i
b0000010010010100 k
b0001001001010001 l
b0010010010100010 m
b0100100101000101 n
b0100100101000101 o
b0100100101000101 p
b0010010010100010 q
b0010010010100010 y
b1111 {
b0000 ""
0&"
b0100100101000101 -"
b1010001010010010 ."
b0100100101000101 0"
b01000101 6"
b0100100101000101 9"
b0100100101000101 <"
b0101 >"
b0100100101000101 A"
b0000010010010100 B"
0C"
b0100100101000101 D"
b0100100101000101 I"
b0001001001010001 J"
b0100100101000101 L"
b0100100101000101 Q"
b0010010010100010 R"
b0010010010100010 T"
b0010010010100010 Y"
b0100010100100100 Z"
b0010010010100010 \"
b10100010 ^"
b0010 b"
0c"
b1111 d"
b10 f"
b0100100101000101 m"
b0100110110000001 n"
b00010101001011001010100011000001 o"
b00000001000000100000010000000100 p"
b0100100101000101 q"
b0100110110000001 r"
b10101 s"
0x"
1y"
#7500000
b1011011010111010 #
1&
1*
b1011011010111010 +
#8000000
b0101010101010101 !
b0000000000000011 "
b10110 $
b0001 %
0&
b0101010101010101 '
b0000000000000011 (
b10110 )
0*
b0001 ,
b0101010101010101 -
b1001010101010001 0
b1010101010101010 2
06
07
b0011 8
b1010101010101000 9
1:
1=
b00000000000000001111111111111011 >
b00000000000000000000000000000100 ?
b0001 B
b0101010101010101 E
b1001010101010001 H
b0001010101010100 J
b0110101010101001 K
b1001010101010001 L
b0101010101010101 Q
b0000000000000011 R
0V
b1010101010101010 W
b1010101010101010 Y
b0101010101010101 ^
b0011 _
1`
b1010101010101000 c
b0001 d
b1010101010101010 e
b00000000 f
b0000 g
b00 h
b1010101010101000 i
b0000000010101010 j
b0000101010101010 k
b0010101010101010 l
b0001010101010101 m
b1010101010101010 n
b1010101010101010 o
b0010101010101010 p
b0001010101010101 q
1x
b0001010101010101 y
b00000000 z
b0000 {
b01 |
1}
b00000000 !"
b0000 ""
b01 #"
1$"
0%"
0&"
1'"
1("
1,"
b0101010101010101 -"
b1010101010101010 ."
1/"
b1010101010101010 0"
b1 2"
b10101010 6"
b1010101010101010 9"
b0000000010101010 :"
b1010101010101010 <"
b1010 >"
b1010101010101010 A"
b0000101010101010 B"
b1010101010101010 D"
b10 F"
b1010101010101010 I"
b0010101010101010 J"
1K"
b0010101010101010 L"
b0 N"
b0010101010101010 Q"
b0001010101010101 R"
b0001010101010101 T"
b1 U"
b0 V"
b1 X"
b0001010101010101 Y"
b1010101010101000 Z"
1["
b1010101010101000 \"
b00000000 ]"
b01010101 ^"
b00000000 `"
b0000 a"
b0101 b"
b0000 d"
b00 e"
b01 f"
1g"
b01 h"
b0 i"
b1 j"
b1 l"
b0101010101010101 m"
b0000000000000011 n"
b00000000000000001111111111111011 o"
b00000000000000000000000000000100 p"
b0101010101010101 q"
b0000000000000011 r"
b10110 s"
0y"
1z"
#8500000
b1010101010101000 #
1&
1*
b1010101010101000 +
#9000000
b0000000100000001 !
b0000000000000101 "
b0000 %
0&
b0000000100000001 '
b0000000000000101 (
0*
b0000 ,
b0000000100000001 -
b0100000011111101 0
b1111111011111110 2
b0101 8
b0010000000100000 9
b00000000000000000000010100000101 >
b00000000000000000000000000000000 ?
b0000 B
b0000 C
b0000000100000001 E
b0100000011111101 H
b0000 I
b0000000100000000 J
b0011111011111101 K
b0100000011111101 L
0N
0P
b0000000100000001 Q
b0000000000000101 R
b1111111011111110 W
b1111111011111110 Y
b0000000100000001 ^
b0101 _
b0010000000100000 c
b0000 d
b1000000010000000 e
b0010000000100000 i
b0000000010000000 j
b0000100000001000 k
b0000001000000010 l
b0000010000000100 m
b1000000010000000 n
b0000100000001000 o
b0000100000001000 p
b0000010000000100 q
0x
b0000010000000100 y
b0000 {
b00 |
0}
b0000 ""
b00 #"
0$"
0&"
0'"
0("
0,"
b0000000100000001 -"
b1000000010000000 ."
b1000000010000000 0"
b10000000 6"
b1000000010000000 9"
b0000000010000000 :"
b1000000010000000 <"
b0000 >"
b1000000010000000 A"
b0000100000001000 B"
1C"
b0000100000001000 D"
b00 F"
b0000100000001000 I"
b0000001000000010 J"
0K"
b0000100000001000 L"
b0000100000001000 Q"
b0000010000000100 R"
b0000010000000100 T"
b0 U"
b0 X"
b0000010000000100 Y"
b0010000000100000 Z"
b0010000000100000 \"
b01000000 ^"
b0000 b"
1c"
b0000 d"
b00 f"
0g"
b00 h"
b0 j"
b0 l"
b0000000100000001 m"
b0000000000000101 n"
b00000000000000000000010100000101 o"
b00000000000000000000000000000000 p"
b0000000100000001 q"
b0000000000000101 r"
#9500000
b0010000000100000 #
1&
1*
b0010000000100000 +
#10000000
b0001001010010001 !
b0000000000001011 "
b10111 $
b0001 %
0&
b0001001010010001 '
b0000000000001011 (
b10111 )
0*
b0001 ,
b0001001010010001 -
b0101001010001101 0
b1110110101101110 2
b1011 8
b1000100010010100 9
1;
b00000000000000001100101000111011 >
b00000000000000000000001000000000 ?
b0001 B
b0001001010010001 E
b0101001010001101 H
b0001001010010000 J
b0010110101101101 K
b0101001010001101 L
b0001001010010001 Q
b0000000000001011 R
b1110110101101110 W
b1110110101101110 Y
b0001001010010001 ^
b1011 _
1a
b1000100010010100 c
b0001 d
b1000100101001000 e
b1000100010010100 i
b0100100010001001 j
b1001010010001000 k
b0101001000100010 l
b0010100100010001 m
b0100100010001001 n
b0100100010001001 o
b0101001000100010 p
b0010100100010001 q
1x
b0010100100010001 y
b10100100 z
1}
b10100100 !"
1$"
1%"
1("
1,"
b0001001010010001 -"
b1000100101001000 ."
b1000100101001000 0"
b01001000 6"
17"
b01001000 8"
b1000100101001000 9"
b0100100010001001 :"
1;"
b0100100010001001 <"
b1001 >"
1?"
b1001 @"
b0100100010001001 A"
b1001010010001000 B"
0C"
b0100100010001001 D"
b01 F"
1G"
b01 H"
b0100100010001001 I"
b0101001000100010 J"
1K"
b0101001000100010 L"
1O"
b0101001000100010 Q"
b0010100100010001 R"
b0010100100010001 T"
b1 U"
b1 X"
b0010100100010001 Y"
b1000100010010100 Z"
b1000100010010100 \"
b10100100 ^"
1_"
b10100100 `"
b0100 b"
0c"
1g"
b1 j"
b1 l"
b0001001010010001 m"
b0000000000001011 n"
b00000000000000001100101000111011 o"
b00000000000000000000001000000000 p"
b0001001010010001 q"
b0000000000001011 r"
b10111 s"
1{"
#10500000
b1000100010010100 #
1&
1*
b1000100010010100 +
#11000000
b1110000000000001 !
b0000000000000111 "
b0000 %
0&
b1110000000000001 '
b0000000000000111 (
0*
b0000 ,
b1110000000000001 -
b0001111111111101 0
b0001111111111110 2
b0111 8
b0000000011110000 9
b00000000000001100010000000000111 >
b00000000000000000000000000000000 ?
b0000 A
b0000 B
b0000 C
b1110000000000001 E
b0001111111111101 H
b0000 I
b0010000000000000 J
b1101111111111101 K
b0001111111111101 L
0P
b1110000000000001 Q
b0000000000000111 R
b0001111111111110 W
b0000 X
b0001111111111110 Y
0]
b1110000000000001 ^
b0111 _
b0000000011110000 c
b0000 d
b1000000000000111 e
b11111111 f
b1111 g
b11 h
b0000000011110000 i
b0000011110000000 j
b0111100000000000 k
b0001111000000000 l
b0000111100000000 m
b1000000000000111 n
b0111100000000000 o
b0001111000000000 p
b0000111100000000 q
0x
b0000111100000000 y
b11111111 z
b0011 {
0}
b00000000 !"
b1100 ""
b11 #"
1$"
0%"
1&"
1'"
1("
0,"
b1110000000000001 -"
b1000000000000111 ."
b1000000000000111 0"
b00000111 6"
b00000111 8"
b1000000000000111 9"
b0000011110000000 :"
0;"
b1000000000000111 <"
b0111 >"
b0111 @"
b1000000000000111 A"
b0111100000000000 B"
1C"
b0111100000000000 D"
b00 F"
b00 H"
b0111100000000000 I"
b0001111000000000 J"
b0001111000000000 L"
b0001111000000000 Q"
b0000111100000000 R"
b0000111100000000 T"
b0 U"
b1 V"
b0 X"
b0000111100000000 Y"
b0000000011110000 Z"
b0000000011110000 \"
b11111111 ]"
b00000011 ^"
0_"
b11111111 `"
b1111 a"
b0011 b"
1c"
b0011 d"
b11 e"
b1 i"
b0 j"
b0 l"
b1110000000000001 m"
b0000000000000111 n"
b00000000000001100010000000000111 o"
b00000000000000000000000000000000 p"
b1110000000000001 q"
b0000000000000111 r"
#11500000
b0000000011110000 #
1&
1*
b0000000011110000 +
