sim/alu_tb.vcd
$date
  Sun May 19 21:38:14 2019
$end
$version
  GHDL v0
$end
$timescale
  1 fs
$end
$scope module standard $end
$upscope $end
$scope module textio $end
$upscope $end
$scope module std_logic_1164 $end
$upscope $end
$scope module numeric_std $end
$upscope $end
$scope module alu_tb $end
$var reg 16 ! op1_tb[15:0] $end
$var reg 16 " op2_tb[15:0] $end
$var reg 16 # res_tb[15:0] $end
$var reg 5 $ opc_tb[4:0] $end
$var reg 4 % flags_tb[3:0] $end
$var reg 1 & clk_tb $end
$scope module dut $end
$var reg 16 ' i_op1[15:0] $end
$var reg 16 ( i_op2[15:0] $end
$var reg 5 ) i_opc[4:0] $end
$var reg 1 * i_clk $end
$var reg 16 + o_res[15:0] $end
$var reg 4 , o_flags[3:0] $end
$var reg 16 - add_vec[15:0] $end
$var reg 16 . inv_vec[15:0] $end
$var reg 1 / sub_flag $end
$var reg 16 0 add_res[15:0] $end
$var reg 1 1 add_flag $end
$var reg 16 2 lu_res[15:0] $end
$var reg 1 3 lu_and $end
$var reg 1 4 lu_or $end
$var reg 1 5 lu_xor $end
$var reg 1 6 lu_not $end
$var reg 1 7 lu_flag $end
$var reg 4 8 shift[3:0] $end
$var reg 16 9 sh_res[15:0] $end
$var reg 1 : sh_dir $end
$var reg 1 ; sh_rot $end
$var reg 1 < sh_ar $end
$var reg 1 = sh_flag $end
$var reg 32 > mul_op1[31:0] $end
$var reg 32 ? mul_op2[31:0] $end
$var reg 1 @ mul_flag $end
$var reg 4 A lu_flags[3:0] $end
$var reg 4 B sh_flags[3:0] $end
$var reg 4 C add_flags[3:0] $end
$var reg 16 D res[15:0] $end
$scope module claa_inst $end
$var reg 16 E i_op1[15:0] $end
$var reg 16 F i_op2[15:0] $end
$var reg 1 G i_c $end
$var reg 1 H o_p $end
$var reg 1 I o_g $end
$var reg 16 J o_res[15:0] $end
$var reg 4 K o_flags[3:0] $end
$var reg 16 L res_vec[15:0] $end
$var reg 4 M p_vec[3:0] $end
$var reg 4 N g_vec[3:0] $end
$var reg 4 O c_vec[3:0] $end
$var reg 1 P add_z $end
$var reg 1 Q add_f $end
$var reg 1 R add_c $end
$var reg 1 S add_n $end
$scope module gen_claa(0) $end
$scope module lsb_claa $end
$scope module a0 $end
$var reg 4 T i_op1[3:0] $end
$var reg 4 U i_op2[3:0] $end
$var reg 1 V i_c $end
$var reg 4 W o_res[3:0] $end
$var reg 1 X o_p $end
$var reg 1 Y o_g $end
$var reg 1 Z o_c $end
$var reg 4 [ res_vec[3:0] $end
$var reg 4 \ p_vec[3:0] $end
$var reg 4 ] g_vec[3:0] $end
$var reg 4 ^ c_vec[3:0] $end
$scope module gen_adder(0) $end
$scope module lsb_adder $end
$scope module a0 $end
$var reg 1 _ i_op1 $end
$var reg 1 ` i_op2 $end
$var reg 1 a i_c $end
$var reg 1 b o_res $end
$var reg 1 c o_g $end
$var reg 1 d o_p $end
$upscope $end
$upscope $end
$upscope $end
$scope module gen_adder(1) $end
$scope module adder $end
$scope module ax $end
$var reg 1 e i_op1 $end
$var reg 1 f i_op2 $end
$var reg 1 g i_c $end
$var reg 1 h o_res $end
$var reg 1 i o_g $end
$var reg 1 j o_p $end
$upscope $end
$upscope $end
$upscope $end
$scope module gen_adder(2) $end
$scope module adder $end
$scope module ax $end
$var reg 1 k i_op1 $end
$var reg 1 l i_op2 $end
$var reg 1 m i_c $end
$var reg 1 n o_res $end
$var reg 1 o o_g $end
$var reg 1 p o_p $end
$upscope $end
$upscope $end
$upscope $end
$scope module gen_adder(3) $end
$scope module adder $end
$scope module ax $end
$var reg 1 q i_op1 $end
$var reg 1 r i_op2 $end
$var reg 1 s i_c $end
$var reg 1 t o_res $end
$var reg 1 u o_g $end
$var reg 1 v o_p $end
$upscope $end
$upscope $end
$upscope $end
$scope module lcu_inst $end
$var reg 1 w i_c $end
$var reg 4 x i_p[3:0] $end
$var reg 4 y i_g[3:0] $end
$var reg 4 z o_c[3:0] $end
$var reg 1 { o_pg $end
$var reg 1 | o_gg $end
$var reg 1 } pg $end
$var reg 1 !" gg $end
$var reg 4 "" c_vec[3:0] $end
$upscope $end
$upscope $end
$upscope $end
$upscope $end
$scope module gen_claa(1) $end
$scope module claa $end
$scope module ax $end
$var reg 4 #" i_op1[3:0] $end
$var reg 4 $" i_op2[3:0] $end
$var reg 1 %" i_c $end
$var reg 4 &" o_res[3:0] $end
$var reg 1 '" o_p $end
$var reg 1 (" o_g $end
$var reg 1 )" o_c $end
$var reg 4 *" res_vec[3:0] $end
$var reg 4 +" p_vec[3:0] $end
$var reg 4 ," g_vec[3:0] $end
$var reg 4 -" c_vec[3:0] $end
$scope module gen_adder(0) $end
$scope module lsb_adder $end
$scope module a0 $end
$var reg 1 ." i_op1 $end
$var reg 1 /" i_op2 $end
$var reg 1 0" i_c $end
$var reg 1 1" o_res $end
$var reg 1 2" o_g $end
$var reg 1 3" o_p $end
$upscope $end
$upscope $end
$upscope $end
$scope module gen_adder(1) $end
$scope module adder $end
$scope module ax $end
$var reg 1 4" i_op1 $end
$var reg 1 5" i_op2 $end
$var reg 1 6" i_c $end
$var reg 1 7" o_res $end
$var reg 1 8" o_g $end
$var reg 1 9" o_p $end
$upscope $end
$upscope $end
$upscope $end
$scope module gen_adder(2) $end
$scope module adder $end
$scope module ax $end
$var reg 1 :" i_op1 $end
$var reg 1 ;" i_op2 $end
$var reg 1 <" i_c $end
$var reg 1 =" o_res $end
$var reg 1 >" o_g $end
$var reg 1 ?" o_p $end
$upscope $end
$upscope $end
$upscope $end
$scope module gen_adder(3) $end
$scope module adder $end
$scope module ax $end
$var reg 1 @" i_op1 $end
$var reg 1 A" i_op2 $end
$var reg 1 B" i_c $end
$var reg 1 C" o_res $end
$var reg 1 D" o_g $end
$var reg 1 E" o_p $end
$upscope $end
$upscope $end
$upscope $end
$scope module lcu_inst $end
$var reg 1 F" i_c $end
$var reg 4 G" i_p[3:0] $end
$var reg 4 H" i_g[3:0] $end
$var reg 4 I" o_c[3:0] $end
$var reg 1 J" o_pg $end
$var reg 1 K" o_gg $end
$var reg 1 L" pg $end
$var reg 1 M" gg $end
$var reg 4 N" c_vec[3:0] $end
$upscope $end
$upscope $end
$upscope $end
$upscope $end
$scope module gen_claa(2) $end
$scope module claa $end
$scope module ax $end
$var reg 4 O" i_op1[3:0] $end
$var reg 4 P" i_op2[3:0] $end
$var reg 1 Q" i_c $end
$var reg 4 R" o_res[3:0] $end
$var reg 1 S" o_p $end
$var reg 1 T" o_g $end
$var reg 1 U" o_c $end
$var reg 4 V" res_vec[3:0] $end
$var reg 4 W" p_vec[3:0] $end
$var reg 4 X" g_vec[3:0] $end
$var reg 4 Y" c_vec[3:0] $end
$scope module gen_adder(0) $end
$scope module lsb_adder $end
$scope module a0 $end
$var reg 1 Z" i_op1 $end
$var reg 1 [" i_op2 $end
$var reg 1 \" i_c $end
$var reg 1 ]" o_res $end
$var reg 1 ^" o_g $end
$var reg 1 _" o_p $end
$upscope $end
$upscope $end
$upscope $end
$scope module gen_adder(1) $end
$scope module adder $end
$scope module ax $end
$var reg 1 `" i_op1 $end
$var reg 1 a" i_op2 $end
$var reg 1 b" i_c $end
$var reg 1 c" o_res $end
$var reg 1 d" o_g $end
$var reg 1 e" o_p $end
$upscope $end
$upscope $end
$upscope $end
$scope module gen_adder(2) $end
$scope module adder $end
$scope module ax $end
$var reg 1 f" i_op1 $end
$var reg 1 g" i_op2 $end
$var reg 1 h" i_c $end
$var reg 1 i" o_res $end
$var reg 1 j" o_g $end
$var reg 1 k" o_p $end
$upscope $end
$upscope $end
$upscope $end
$scope module gen_adder(3) $end
$scope module adder $end
$scope module ax $end
$var reg 1 l" i_op1 $end
$var reg 1 m" i_op2 $end
$var reg 1 n" i_c $end
$var reg 1 o" o_res $end
$var reg 1 p" o_g $end
$var reg 1 q" o_p $end
$upscope $end
$upscope $end
$upscope $end
$scope module lcu_inst $end
$var reg 1 r" i_c $end
$var reg 4 s" i_p[3:0] $end
$var reg 4 t" i_g[3:0] $end
$var reg 4 u" o_c[3:0] $end
$var reg 1 v" o_pg $end
$var reg 1 w" o_gg $end
$var reg 1 x" pg $end
$var reg 1 y" gg $end
$var reg 4 z" c_vec[3:0] $end
$upscope $end
$upscope $end
$upscope $end
$upscope $end
$scope module gen_claa(3) $end
$scope module claa $end
$scope module ax $end
$var reg 4 {" i_op1[3:0] $end
$var reg 4 |" i_op2[3:0] $end
$var reg 1 }" i_c $end
$var reg 4 !# o_res[3:0] $end
$var reg 1 "# o_p $end
$var reg 1 ## o_g $end
$var reg 1 $# o_c $end
$var reg 4 %# res_vec[3:0] $end
$var reg 4 &# p_vec[3:0] $end
$var reg 4 '# g_vec[3:0] $end
$var reg 4 (# c_vec[3:0] $end
$scope module gen_adder(0) $end
$scope module lsb_adder $end
$scope module a0 $end
$var reg 1 )# i_op1 $end
$var reg 1 *# i_op2 $end
$var reg 1 +# i_c $end
$var reg 1 ,# o_res $end
$var reg 1 -# o_g $end
$var reg 1 .# o_p $end
$upscope $end
$upscope $end
$upscope $end
$scope module gen_adder(1) $end
$scope module adder $end
$scope module ax $end
$var reg 1 /# i_op1 $end
$var reg 1 0# i_op2 $end
$var reg 1 1# i_c $end
$var reg 1 2# o_res $end
$var reg 1 3# o_g $end
$var reg 1 4# o_p $end
$upscope $end
$upscope $end
$upscope $end
$scope module gen_adder(2) $end
$scope module adder $end
$scope module ax $end
$var reg 1 5# i_op1 $end
$var reg 1 6# i_op2 $end
$var reg 1 7# i_c $end
$var reg 1 8# o_res $end
$var reg 1 9# o_g $end
$var reg 1 :# o_p $end
$upscope $end
$upscope $end
$upscope $end
$scope module gen_adder(3) $end
$scope module adder $end
$scope module ax $end
$var reg 1 ;# i_op1 $end
$var reg 1 <# i_op2 $end
$var reg 1 =# i_c $end
$var reg 1 ># o_res $end
$var reg 1 ?# o_g $end
$var reg 1 @# o_p $end
$upscope $end
$upscope $end
$upscope $end
$scope module lcu_inst $end
$var reg 1 A# i_c $end
$var reg 4 B# i_p[3:0] $end
$var reg 4 C# i_g[3:0] $end
$var reg 4 D# o_c[3:0] $end
$var reg 1 E# o_pg $end
$var reg 1 F# o_gg $end
$var reg 1 G# pg $end
$var reg 1 H# gg $end
$var reg 4 I# c_vec[3:0] $end
$upscope $end
$upscope $end
$upscope $end
$upscope $end
$scope module lcu_inst $end
$var reg 1 J# i_c $end
$var reg 4 K# i_p[3:0] $end
$var reg 4 L# i_g[3:0] $end
$var reg 4 M# o_c[3:0] $end
$var reg 1 N# o_pg $end
$var reg 1 O# o_gg $end
$var reg 1 P# pg $end
$var reg 1 Q# gg $end
$var reg 4 R# c_vec[3:0] $end
$upscope $end
$upscope $end
$scope module lu_int $end
$var reg 16 S# i_op1[15:0] $end
$var reg 16 T# i_op2[15:0] $end
$var reg 1 U# i_and $end
$var reg 1 V# i_or $end
$var reg 1 W# i_xor $end
$var reg 1 X# i_not $end
$var reg 16 Y# o_res[15:0] $end
$var reg 4 Z# o_flags[3:0] $end
$var reg 16 [# res[15:0] $end
$var reg 1 \# lu_z $end
$var reg 1 ]# lu_f $end
$var reg 1 ^# lu_c $end
$var reg 1 _# lu_n $end
$upscope $end
$scope module shifter_inst $end
$var reg 16 `# i_op[15:0] $end
$var reg 4 a# i_s[3:0] $end
$var reg 1 b# i_dir $end
$var reg 1 c# i_rot $end
$var reg 1 d# i_ar $end
$var reg 16 e# o_res[15:0] $end
$var reg 4 f# o_flags[3:0] $end
$var reg 16 g# rev_0[15:0] $end
$var reg 8 h# rev_0_8[7:0] $end
$var reg 4 i# rev_0_4[3:0] $end
$var reg 2 j# rev_0_2[1:0] $end
$var reg 16 k# rev_1[15:0] $end
$var reg 16 l# rot_0[15:0] $end
$var reg 16 m# rot_1[15:0] $end
$var reg 16 n# rot_2[15:0] $end
$var reg 16 o# rot_3[15:0] $end
$var reg 16 p# s_l0[15:0] $end
$var reg 16 q# s_l1[15:0] $end
$var reg 16 r# s_l2[15:0] $end
$var reg 16 s# s_l3[15:0] $end
$var reg 1 t# s $end
$var reg 2 u# s_2[1:0] $end
$var reg 4 v# s_4[3:0] $end
$var reg 8 w# s_8[7:0] $end
$var reg 1 x# sl $end
$var reg 1 y# sr $end
$var reg 1 z# sign_sig $end
$var reg 16 {# adj_s_l3[15:0] $end
$var reg 8 |# of_mux_out0[7:0] $end
$var reg 4 }# of_mux_out1[3:0] $end
$var reg 2 !$ of_mux_out2[1:0] $end
$var reg 1 "$ of_mux_out3 $end
$var reg 8 #$ xor_out0[7:0] $end
$var reg 4 $$ xor_out1[3:0] $end
$var reg 2 %$ xor_out2[1:0] $end
$var reg 1 &$ xor_out3 $end
$var reg 1 '$ of_tmp0 $end
$var reg 1 ($ of_tmp1 $end
$var reg 1 )$ of_tmp2 $end
$var reg 1 *$ of_tmp3 $end
$var reg 1 +$ sh_z $end
$var reg 1 ,$ sh_f $end
$var reg 1 -$ sh_c $end
$var reg 1 .$ sh_n $end
$scope module rev0_mux $end
$var reg 16 /$ i_sig0[15:0] $end
$var reg 16 0$ i_sig1[15:0] $end
$var reg 1 1$ i_sel $end
$var reg 16 2$ o_sig[15:0] $end
$upscope $end
$scope module arith_mux $end
$var reg 1 3$ i_sig0[0:0] $end
$var reg 1 4$ i_sig1[0:0] $end
$var reg 1 5$ i_sel $end
$var reg 1 6$ o_sig[0:0] $end
$upscope $end
$scope module rot_l0_mux $end
$var reg 8 7$ i_sig0[7:0] $end
$var reg 8 8$ i_sig1[7:0] $end
$var reg 1 9$ i_sel $end
$var reg 8 :$ o_sig[7:0] $end
$upscope $end
$scope module mux_8shift $end
$var reg 16 ;$ i_sig0[15:0] $end
$var reg 16 <$ i_sig1[15:0] $end
$var reg 1 =$ i_sel $end
$var reg 16 >$ o_sig[15:0] $end
$upscope $end
$scope module rot_l1_mux $end
$var reg 4 ?$ i_sig0[3:0] $end
$var reg 4 @$ i_sig1[3:0] $end
$var reg 1 A$ i_sel $end
$var reg 4 B$ o_sig[3:0] $end
$upscope $end
$scope module mux_4shift $end
$var reg 16 C$ i_sig0[15:0] $end
$var reg 16 D$ i_sig1[15:0] $end
$var reg 1 E$ i_sel $end
$var reg 16 F$ o_sig[15:0] $end
$upscope $end
$scope module rot_l2_mux $end
$var reg 2 G$ i_sig0[1:0] $end
$var reg 2 H$ i_sig1[1:0] $end
$var reg 1 I$ i_sel $end
$var reg 2 J$ o_sig[1:0] $end
$upscope $end
$scope module mux_2shift $end
$var reg 16 K$ i_sig0[15:0] $end
$var reg 16 L$ i_sig1[15:0] $end
$var reg 1 M$ i_sel $end
$var reg 16 N$ o_sig[15:0] $end
$upscope $end
$scope module rot_l3_mux $end
$var reg 1 O$ i_sig0[0:0] $end
$var reg 1 P$ i_sig1[0:0] $end
$var reg 1 Q$ i_sel $end
$var reg 1 R$ o_sig[0:0] $end
$upscope $end
$scope module mux_1shift $end
$var reg 16 S$ i_sig0[15:0] $end
$var reg 16 T$ i_sig1[15:0] $end
$var reg 1 U$ i_sel $end
$var reg 16 V$ o_sig[15:0] $end
$upscope $end
$scope module sign_sl $end
$var reg 1 W$ i_sig0[0:0] $end
$var reg 1 X$ i_sig1[0:0] $end
$var reg 1 Y$ i_sel $end
$var reg 1 Z$ o_sig[0:0] $end
$upscope $end
$scope module rev1_mux $end
$var reg 16 [$ i_sig0[15:0] $end
$var reg 16 \$ i_sig1[15:0] $end
$var reg 1 ]$ i_sel $end
$var reg 16 ^$ o_sig[15:0] $end
$upscope $end
$scope module of0_mux $end
$var reg 8 _$ i_sig0[7:0] $end
$var reg 8 `$ i_sig1[7:0] $end
$var reg 1 a$ i_sel $end
$var reg 8 b$ o_sig[7:0] $end
$upscope $end
$scope module of1_mux $end
$var reg 4 c$ i_sig0[3:0] $end
$var reg 4 d$ i_sig1[3:0] $end
$var reg 1 e$ i_sel $end
$var reg 4 f$ o_sig[3:0] $end
$upscope $end
$scope module of2_mux $end
$var reg 2 g$ i_sig0[1:0] $end
$var reg 2 h$ i_sig1[1:0] $end
$var reg 1 i$ i_sel $end
$var reg 2 j$ o_sig[1:0] $end
$upscope $end
$scope module of3_mux $end
$var reg 1 k$ i_sig0[0:0] $end
$var reg 1 l$ i_sig1[0:0] $end
$var reg 1 m$ i_sel $end
$var reg 1 n$ o_sig[0:0] $end
$upscope $end
$scope module xor_0(0) $end
$upscope $end
$scope module xor_0(1) $end
$upscope $end
$scope module xor_0(2) $end
$upscope $end
$scope module xor_0(3) $end
$upscope $end
$scope module xor_0(4) $end
$upscope $end
$scope module xor_0(5) $end
$upscope $end
$scope module xor_0(6) $end
$upscope $end
$scope module xor_0(7) $end
$upscope $end
$scope module xor_1(0) $end
$upscope $end
$scope module xor_1(1) $end
$upscope $end
$scope module xor_1(2) $end
$upscope $end
$scope module xor_1(3) $end
$upscope $end
$scope module xor_2(0) $end
$upscope $end
$scope module xor_2(1) $end
$upscope $end
$upscope $end
$scope module mult_inst $end
$var reg 16 o$ i_op1[15:0] $end
$var reg 16 p$ i_op2[15:0] $end
$var reg 32 q$ o_op1[31:0] $end
$var reg 32 r$ o_op2[31:0] $end
$comment tree is not handled $end
$var reg 16 s$ op1[15:0] $end
$var reg 16 t$ op2[15:0] $end
$upscope $end
$scope module decoder_inst $end
$var reg 5 u$ i_opc[4:0] $end
$var reg 1 v$ o_add $end
$var reg 1 w$ o_sub $end
$var reg 1 x$ o_and $end
$var reg 1 y$ o_or $end
$var reg 1 z$ o_xor $end
$var reg 1 {$ o_not $end
$var reg 1 |$ o_dir $end
$var reg 1 }$ o_rot $end
$var reg 1 !% o_ar $end
$var reg 1 "% o_mult $end
$upscope $end
$upscope $end
$upscope $end
$enddefinitions $end
#0
b0000000000000000 !
b0000000000000000 "
bUUUUUUUUUUUUUUUU #
b10000 $
b1010 %
0&
b0000000000000000 '
b0000000000000000 (
b10000 )
0*
bUUUUUUUUUUUUUUUU +
b1010 ,
b0000000000000000 -
b1111111111111111 .
1/
b0000000000000000 0
01
b1111111111111111 2
03
04
05
06
07
b0000 8
b0000000000000000 9
0:
0;
0<
0=
b00000000000000000000000000000000 >
b00000000000000000000000000000000 ?
0@
b0001 A
b1010 B
b1010 C
bUUUUUUUUUUUUUUUU D
b0000000000000000 E
b1111111111111111 F
1G
1H
0I
b0000000000000000 J
b1010 K
b0000000000000000 L
b1111 M
b0000 N
b1111 O
1P
0Q
1R
0S
b0000 T
b1111 U
1V
b0000 W
1X
0Y
1Z
b0000 [
b1111 \
b0000 ]
b1111 ^
0_
1`
1a
0b
0c
1d
0e
1f
1g
0h
0i
1j
0k
1l
1m
0n
0o
1p
0q
1r
1s
0t
0u
1v
1w
b1111 x
b0000 y
b1111 z
1{
0|
1}
0!"
b1111 ""
b0000 #"
b1111 $"
1%"
b0000 &"
1'"
0("
1)"
b0000 *"
b1111 +"
b0000 ,"
b1111 -"
0."
1/"
10"
01"
02"
13"
04"
15"
16"
07"
08"
19"
0:"
1;"
1<"
0="
0>"
1?"
0@"
1A"
1B"
0C"
0D"
1E"
1F"
b1111 G"
b0000 H"
b1111 I"
1J"
0K"
1L"
0M"
b1111 N"
b0000 O"
b1111 P"
1Q"
b0000 R"
1S"
0T"
1U"
b0000 V"
b1111 W"
b0000 X"
b1111 Y"
0Z"
1["
1\"
0]"
0^"
1_"
0`"
1a"
1b"
0c"
0d"
1e"
0f"
1g"
1h"
0i"
0j"
1k"
0l"
1m"
1n"
0o"
0p"
1q"
1r"
b1111 s"
b0000 t"
b1111 u"
1v"
0w"
1x"
0y"
b1111 z"
b0000 {"
b1111 |"
1}"
b0000 !#
1"#
0##
1$#
b0000 %#
b1111 &#
b0000 '#
b1111 (#
0)#
1*#
1+#
0,#
0-#
1.#
0/#
10#
11#
02#
03#
14#
05#
16#
17#
08#
09#
1:#
0;#
1<#
1=#
0>#
0?#
1@#
1A#
b1111 B#
b0000 C#
b1111 D#
1E#
0F#
1G#
0H#
b1111 I#
1J#
b1111 K#
b0000 L#
b1111 M#
1N#
0O#
1P#
0Q#
b1111 R#
b0000000000000000 S#
b0000000000000000 T#
0U#
0V#
0W#
0X#
b1111111111111111 Y#
b0001 Z#
b1111111111111111 [#
0\#
0]#
0^#
1_#
b0000000000000000 `#
b0000 a#
0b#
0c#
0d#
b0000000000000000 e#
b1010 f#
b0000000000000000 g#
b00000000 h#
b0000 i#
b00 j#
b0000000000000000 k#
b0000000000000000 l#
b0000000000000000 m#
b0000000000000000 n#
b0000000000000000 o#
b0000000000000000 p#
b0000000000000000 q#
b0000000000000000 r#
b0000000000000000 s#
0t#
b00 u#
b0000 v#
b00000000 w#
0x#
0y#
0z#
b0000000000000000 {#
b00000000 |#
b0000 }#
b00 !$
0"$
b00000000 #$
b0000 $$
b00 %$
0&$
0'$
0($
0)$
0*$
1+$
0,$
0-$
0.$
b0000000000000000 /$
b0000000000000000 0$
01$
b0000000000000000 2$
b0 3$
b0 4$
05$
b0 6$
b00000000 7$
b00000000 8$
09$
b00000000 :$
b0000000000000000 ;$
b0000000000000000 <$
0=$
b0000000000000000 >$
b0000 ?$
b0000 @$
0A$
b0000 B$
b0000000000000000 C$
b0000000000000000 D$
0E$
b0000000000000000 F$
b00 G$
b00 H$
0I$
b00 J$
b0000000000000000 K$
b0000000000000000 L$
0M$
b0000000000000000 N$
b0 O$
b0 P$
0Q$
b0 R$
b0000000000000000 S$
b0000000000000000 T$
0U$
b0000000000000000 V$
b0 W$
b0 X$
0Y$
b0 Z$
b0000000000000000 [$
b0000000000000000 \$
0]$
b0000000000000000 ^$
b00000000 _$
b00000000 `$
0a$
b00000000 b$
b0000 c$
b0000 d$
0e$
b0000 f$
b00 g$
b00 h$
0i$
b00 j$
b0 k$
b0 l$
0m$
b0 n$
b0000000000000000 o$
b0000000000000000 p$
b00000000000000000000000000000000 q$
b00000000000000000000000000000000 r$
b0000000000000000 s$
b0000000000000000 t$
b10000 u$
0v$
1w$
0x$
0y$
0z$
0{$
0|$
0}$
0!%
0"%
#500000
b0000000000000000 #
1&
1*
b0000000000000000 +
#1000000
b0000100110010000 !
b1100000000000011 "
b10001 $
b0000 %
0&
b0000100110010000 '
b1100000000000011 (
b10001 )
0*
b0000 ,
b0000100110010000 -
b0011111111111100 .
0/
b0100100110001100 0
11
b1111011001101111 2
b0011 8
b0000000100110010 9
b00000111001011000001100010110000 >
b00000000000000000000010000000000 ?
b0000 B
b0000 C
b0000100110010000 E
b0011111111111100 F
0G
0H
b0100100110001100 J
b0000 K
b0100100110001100 L
b0110 M
b0110 N
b0110 O
0P
0Q
0R
0S
b1100 U
0V
b1100 W
0X
0Z
b1100 [
b1100 \
b0000 ^
0`
0a
0d
0f
0g
0h
0j
0m
1n
0s
1t
0w
b1100 x
b0000 z
0{
0}
b0000 ""
b1001 #"
0%"
b1000 &"
1("
b1000 *"
b1001 ,"
1."
00"
01"
12"
1@"
1C"
1D"
0F"
b1001 H"
1K"
1M"
b1001 O"
1Q"
b1001 R"
1T"
b1001 V"
b1001 X"
1Z"
1\"
1]"
1^"
1l"
1o"
1p"
1r"
b1001 t"
1w"
1y"
b0011 |"
1}"
b0100 !#
0"#
0$#
b0100 %#
b0011 &#
b0011 (#
1+#
0,#
11#
02#
06#
17#
18#
0:#
0<#
0=#
0>#
0@#
1A#
b0011 B#
b0011 D#
0E#
0G#
b0011 I#
0J#
b0110 K#
b0110 L#
b0110 M#
0N#
0P#
b0110 R#
b0000100110010000 S#
b1100000000000011 T#
b1111011001101111 Y#
b1111011001101111 [#
b0000100110010000 `#
b0011 a#
b0000000100110010 e#
b0000 f#
b0000100110010000 g#
b0000000100110010 k#
b0000000000001001 l#
b0000000010011001 m#
b0000001001100100 n#
b0000000100110010 o#
b0000100110010000 p#
b0000100110010000 q#
b0000001001100100 r#
b0000000100110010 s#
b0000000100110010 {#
0+$
b0000100110010000 /$
b0000100110010000 0$
b0000100110010000 2$
b10010000 8$
b0000100110010000 ;$
b0000000000001001 <$
b0000100110010000 >$
b0000100110010000 C$
b0000000010011001 D$
b0000100110010000 F$
b0000100110010000 K$
b0000001001100100 L$
1M$
b0000001001100100 N$
b0000001001100100 S$
b0000000100110010 T$
1U$
b0000000100110010 V$
b0000000100110010 [$
b0100110010000000 \$
b0000000100110010 ^$
b11001000 `$
b1000 d$
1i$
1m$
b0000100110010000 o$
b1100000000000011 p$
b00000111001011000001100010110000 q$
b00000000000000000000010000000000 r$
b0000100110010000 s$
b1100000000000011 t$
b10001 u$
1v$
0w$
#1500000
b0100100110001100 #
1&
1*
b0100100110001100 +
#2000000
b0111001010010001 !
b0111100111100101 "
b10010 $
b0000 %
0&
b0111001010010001 '
b0111100111100101 (
b10010 )
0*
b0000 ,
b0111001010010001 -
b1011001010001101 0
01
b0111000010000001 2
13
17
b0101 8
b0000001110010100 9
b00000101011010101111001010110101 >
b00110001001000100001001000000000 ?
b0000 A
b0101 C
b0111001010010001 E
b1011001010001101 J
b0101 K
b1011001010001101 L
1Q
1S
b0001 T
b1101 W
b1101 [
b1101 \
1_
1b
1d
b1101 x
b0010 O"
b0010 R"
b0010 V"
b0010 X"
0Z"
0]"
0^"
1`"
1c"
1d"
0l"
0o"
0p"
b0010 t"
b0111 {"
b1011 !#
b1011 %#
b0111 &#
b0011 '#
b0111 (#
1)#
1,#
1-#
1/#
12#
13#
15#
08#
1:#
1=#
1>#
b0111 B#
b0011 C#
b0111 D#
b0111 I#
b0111001010010001 S#
b0111100111100101 T#
1U#
b0111000010000001 Y#
b0000 Z#
b0111000010000001 [#
0_#
b0111001010010001 `#
b0101 a#
b0000001110010100 e#
b0111001010010001 g#
b11111111 h#
b1111 i#
b11 j#
b0000001110010100 k#
b0000000001110010 l#
b0000011100101001 m#
b0000000111001010 n#
b0000001110010100 o#
b0111001010010001 p#
b0000011100101001 q#
b0000011100101001 r#
b0000001110010100 s#
b0000001110010100 {#
b11111111 |#
b1000 }#
b11 !$
b00000000 #$
b0111 $$
b00 %$
1&$
0'$
1($
0)$
1*$
b0111001010010001 /$
b1000100101001110 0$
b0111001010010001 2$
b10010001 8$
b0111001010010001 ;$
b0000000001110010 <$
b0111001010010001 >$
b0001 @$
b0111001010010001 C$
b0000011100101001 D$
1E$
b0000011100101001 F$
b01 H$
b0000011100101001 K$
b0000000111001010 L$
0M$
b0000011100101001 N$
b1 P$
b0000011100101001 S$
b0000001110010100 T$
b0000001110010100 V$
b1 X$
b0000001110010100 [$
b0010100111000000 \$
b0000001110010100 ^$
b11111111 _$
b01001000 `$
b11111111 b$
b1111 c$
1e$
b1000 f$
b11 g$
0i$
b11 j$
b1 k$
b0111001010010001 o$
b0111100111100101 p$
b00000101011010101111001010110101 q$
b00110001001000100001001000000000 r$
b0111001010010001 s$
b0111100111100101 t$
b10010 u$
0v$
1x$
#2500000
b0111000010000001 #
1&
1*
b0111000010000001 +
#3000000
b1001001010100001 !
b1000010001010101 "
b0001 %
0&
b1001001010100001 '
b1000010001010101 (
0*
b0001 ,
b1001001010100001 -
b1101001010011101 0
b1000000000000001 2
b0000010010010101 9
b01001011100010111010001101110101 >
b00000000010000000001000000000000 ?
b0001 A
b0001 C
b1001001010100001 E
b1101001010011101 J
b0001 K
b1101001010011101 L
0Q
1S
b1010 #"
b1001 &"
b1001 *"
b1010 ,"
b1110 -"
0."
11"
02"
14"
06"
07"
18"
b1010 H"
b1110 I"
b1110 N"
b1001 {"
b1101 !#
0$#
b1101 %#
b1011 &#
b0001 '#
b0011 (#
0/#
02#
03#
05#
18#
0:#
1;#
0=#
1>#
1@#
b1011 B#
b0001 C#
b0011 D#
b0011 I#
b1001001010100001 S#
b1000010001010101 T#
b1000000000000001 Y#
b0001 Z#
b1000000000000001 [#
1_#
b1001001010100001 `#
b0000010010010101 e#
b1001001010100001 g#
b0000010010010101 k#
b0000000010010010 l#
b0000100100101010 m#
b0000001001001010 n#
b0000010010010101 o#
b1001001010100001 p#
b0000100100101010 q#
b0000100100101010 r#
b0000010010010101 s#
1z#
b0000010010010101 {#
b0000 }#
1"$
b1111 $$
0&$
0*$
b1001001010100001 /$
b1000010101001001 0$
b1001001010100001 2$
b1 4$
b10100001 8$
b1001001010100001 ;$
b0000000010010010 <$
b1001001010100001 >$
b1001001010100001 C$
b0000100100101010 D$
b0000100100101010 F$
b10 H$
b0000100100101010 K$
b0000001001001010 L$
b0000100100101010 N$
b0 P$
b0000100100101010 S$
b0000010010010101 T$
b0000010010010101 V$
b1 W$
b1 Z$
b0000010010010101 [$
b1010100100100000 \$
b0000010010010101 ^$
b01010000 `$
b0000 d$
b0000 f$
b01 h$
b1 l$
b1 n$
b1001001010100001 o$
b1000010001010101 p$
b01001011100010111010001101110101 q$
b00000000010000000001000000000000 r$
b1001001010100001 s$
b1000010001010101 t$
#3500000
b1000000000000001 #
1&
1*
b1000000000000001 +
#4000000
b10011 $
0&
b10011 )
0*
b1001011011110101 2
03
14
0U#
1V#
b1001011011110101 Y#
b1001011011110101 [#
b10011 u$
0x$
1y$
#4500000
b1001011011110101 #
1&
1*
b1001011011110101 +
