sim/cs_full_adder_tb.vcd
$date
  Sat Jan 12 14:07:45 2019
$end
$version
  GHDL v0
$end
$timescale
  1 fs
$end
$var reg 1 ! opx_tb $end
$var reg 1 " opy_tb $end
$var reg 1 # opz_tb $end
$var reg 1 $ e_tb $end
$var reg 1 % c_tb $end
$scope module dut $end
$var reg 1 & i_opx $end
$var reg 1 ' i_opy $end
$var reg 1 ( i_opz $end
$var reg 1 ) o_e $end
$var reg 1 * o_c $end
$upscope $end
$enddefinitions $end
#0
0!
0"
0#
0$
0%
0&
0'
0(
0)
0*
#1000000
1"
1$
1'
1)
#2000000
1!
0"
1&
0'
#3000000
1"
0$
1%
1'
0)
1*
#4000000
0!
0"
1#
1$
0%
0&
0'
1(
1)
0*
#5000000
1"
0$
1%
1'
0)
1*
#6000000
1!
0"
1&
0'
#7000000
1"
1$
1'
1)
