sim/full_adder_tb.vcd
$date
  Sat Jan 12 09:50:46 2019
$end
$version
  GHDL v0
$end
$timescale
  1 fs
$end
$var reg 1 ! opa_tb $end
$var reg 1 " opb_tb $end
$var reg 1 # c_tb $end
$var reg 1 $ e_tb $end
$var reg 1 % g_tb $end
$var reg 1 & p_tb $end
$scope module dut $end
$var reg 1 ' i_opa $end
$var reg 1 ( i_opb $end
$var reg 1 ) i_c $end
$var reg 1 * o_e $end
$var reg 1 + o_g $end
$var reg 1 , o_p $end
$upscope $end
$enddefinitions $end
#0
0!
0"
0#
0$
0%
0&
0'
0(
0)
0*
0+
0,
#1000000
1"
1$
1&
1(
1*
1,
#2000000
1!
0"
1'
0(
#3000000
1"
0$
1%
1(
0*
1+
#4000000
0!
0"
1#
1$
0%
0&
0'
0(
1)
1*
0+
0,
#5000000
1"
0$
1&
1(
0*
1,
#6000000
1!
0"
1'
0(
#7000000
1"
1$
1%
1(
1*
1+
